Manipulation de données avec R
…
```r
set.seed(1234)
tbl <- tibble(group1 = rep(c("A", "B"), each = 5000),
              group2 = rep(c("C", "D"), each = 5000),
              value = rnorm(10000),
              weight = sample(1:10, 10000, replace = TRUE))
tbl
```

```
## # A tibble: 10,000 × 4
##    group1 group2  value weight
##    <chr>  <chr>   <dbl>  <int>
##  1 A      C      -1.21       5
##  2 A      C       0.277      7
##  3 A      C       1.08       1
##  4 A      C      -2.35       4
##  5 A      C       0.429      9
##  6 A      C       0.506      8
##  7 A      C      -0.575      1
##  8 A      C      -0.547      5
##  9 A      C      -0.564      1
## 10 A      C      -0.890      7
## # ℹ 9,990 more rows
```
…
.pull-left[
**solution 1**:

```r
library(tidyverse)

tmp <- select(tbl, group1, 
              weight)
print(filter(tmp, 
             weight > 9), n=4)
```

```
## # A tibble: 996 × 2
##   group1 weight
##   <chr>   <int>
## 1 A          10
## 2 A          10
## 3 A          10
## 4 A          10
## # ℹ 992 more rows
```
…
.pull-right[
**solution 2**

```r
library(tidyverse)

print(filter(select(tbl, 
                    group1, 
                    weight), 
             weight > 9), 
      n = 4)
```

```
## # A tibble: 996 × 2
##   group1 weight
##   <chr>   <int>
## 1 A          10
## 2 A          10
## 3 A          10
## 4 A          10
## # ℹ 992 more rows
```
…
## dplyr (suite)

Le **tidyverse** propose une alternative avec le `%>%`.

```r
library(tidyverse)

tbl %>% 
  select(group1, weight) %>% 
  filter(weight > 9) %>% 
  print(, n= 4)
```

```
## # A tibble: 996 × 2
##   group1 weight
##   <chr>   <int>
## 1 A          10
## 2 A          10
## 3 A          10
## 4 A          10
## # ℹ 992 more rows
```
…
